2022-10-24 11:06:31,959 DEBUG    root            Loaded Command Group: ['gcloud', 'version']
2022-10-24 11:06:31,959 DEBUG    root            Running [gcloud.version] with arguments: []
2022-10-24 11:06:31,965 INFO     root            Display format: "flattened[no-pad,separator=" "]"
2022-10-24 11:06:31,965 INFO     ___FILE_ONLY___ Google Cloud SDK
2022-10-24 11:06:31,965 INFO     ___FILE_ONLY___  
2022-10-24 11:06:31,965 INFO     ___FILE_ONLY___ 405.0.0

2022-10-24 11:06:31,965 INFO     ___FILE_ONLY___ beta
2022-10-24 11:06:31,965 INFO     ___FILE_ONLY___  
2022-10-24 11:06:31,965 INFO     ___FILE_ONLY___ 2022.09.30

2022-10-24 11:06:31,965 INFO     ___FILE_ONLY___ bq
2022-10-24 11:06:31,965 INFO     ___FILE_ONLY___  
2022-10-24 11:06:31,965 INFO     ___FILE_ONLY___ 2.0.78

2022-10-24 11:06:31,965 INFO     ___FILE_ONLY___ core
2022-10-24 11:06:31,965 INFO     ___FILE_ONLY___  
2022-10-24 11:06:31,965 INFO     ___FILE_ONLY___ 2022.09.30

2022-10-24 11:06:31,965 INFO     ___FILE_ONLY___ gsutil
2022-10-24 11:06:31,965 INFO     ___FILE_ONLY___  
2022-10-24 11:06:31,966 INFO     ___FILE_ONLY___ 5.14

2022-10-24 11:06:31,966 INFO     ___FILE_ONLY___ kubectl
2022-10-24 11:06:31,966 INFO     ___FILE_ONLY___  
2022-10-24 11:06:31,966 INFO     ___FILE_ONLY___ 1.22.14

2022-10-24 11:06:31,966 INFO     ___FILE_ONLY___ Updates are available for some Google Cloud CLI components.  To install them,
please run:
  $ gcloud components update

2022-10-24 11:06:31,970 DEBUG    root            Metrics reporting process started...
